<?xml version="1.0" encoding="UTF-8"?>
<session version="1.0">
<refactoring accessors="true" comment="Delete element from project &apos;MaverickGaurav&apos;&#x0D;&#x0A;- Original project: &apos;MaverickGaurav&apos;&#x0D;&#x0A;- Original element: &apos;MaverickGaurav/src/Hexaware&apos;" description="Delete element" element1="/src&lt;Hexaware" elements="1" flags="589830" id="org.eclipse.jdt.ui.delete" resources="0" stamp="1582888786613" subPackages="false" version="1.0"/>
</session>